﻿<?xml version="1.0" encoding="UTF-8"?>
<TestRun id="d95f1d44-e943-4611-80fc-92f76038bb75" name="squan@INNONL-PC8 2013-12-20 11:18:14" runUser="FORTNUM\squan" xmlns="http://microsoft.com/schemas/VisualStudio/TeamTest/2010">
  <TestSettings name="Local" id="92ead039-ce91-41c1-94c9-f0d0977cc2e1">
    <Description>These are default test settings for a local test run.</Description>
    <Deployment enabled="false" runDeploymentRoot="squan_INNONL-PC8 2013-12-20 11_18_14">
      <DeploymentItem filename="C:\FortnumProjects\ec\InnovaMain\Source\EclipseFIX\Lib\log4net.dll" />
      <DeploymentItem filename="C:\FortnumProjects\ec\InnovaMain\Source\EclipseFIX\TradeClient\bin\Debug\TradeClient.dll" />
      <DeploymentItem filename="C:\FortnumProjects\ec\InnovaMain\Source\EclipseFIX\EclipseFIXClient\bin\Debug\EclipseFIXClient.exe" />
    </Deployment>
    <Execution>
      <TestTypeSpecific />
      <AgentRule name="Execution Agents">
      </AgentRule>
    </Execution>
  </TestSettings>
  <Times creation="2013-12-20T11:18:14.2238220+11:00" queuing="2013-12-20T11:18:14.8548851+11:00" start="2013-12-20T11:18:14.9188915+11:00" finish="2013-12-20T11:19:08.5032494+11:00" />
  <ResultSummary outcome="Error">
    <Counters total="1" executed="1" error="0" failed="0" timeout="0" aborted="1" inconclusive="0" passedButRunAborted="0" notRunnable="0" notExecuted="0" disconnected="0" warning="0" passed="0" completed="0" inProgress="0" pending="0" />
    <RunInfos>
      <RunInfo computerName="INNONL-PC8" outcome="Warning" timestamp="2013-12-20T11:18:14.2838280+11:00">
        <Text>Deployment is currently disabled. The deployment item 'EclipseFIXClient.exe' on test 'UnitTest.EclipseFIXServiceTest.OnStartTest' was not deployed.</Text>
      </RunInfo>
      <RunInfo computerName="INNONL-PC8" outcome="Error" timestamp="2013-12-20T11:19:08.5022493+11:00">
        <Text>Test host process exited unexpectedly.</Text>
      </RunInfo>
    </RunInfos>
  </ResultSummary>
  <TestDefinitions>
    <UnitTest name="OnStartTest" storage="c:\fortnumprojects\ec\innovamain\source\eclipsefix\unittest\bin\debug\unittest.dll" id="48fcceca-dd9a-fd15-875a-96af18ac694f">
      <DeploymentItems>
        <DeploymentItem filename="EclipseFIXClient.exe" />
      </DeploymentItems>
      <Execution id="e89042a5-a24e-48a1-9dfd-c14803d8b0bd" />
      <TestMethod codeBase="C:/FortnumProjects/ec/InnovaMain/Source/EclipseFIX/UnitTest/bin/Debug/UnitTest.DLL" adapterTypeName="Microsoft.VisualStudio.TestTools.TestTypes.Unit.UnitTestAdapter, Microsoft.VisualStudio.QualityTools.Tips.UnitTest.Adapter, Version=10.0.0.0, Culture=neutral, PublicKeyToken=b03f5f7f11d50a3a" className="UnitTest.EclipseFIXServiceTest, UnitTest, Version=1.0.0.0, Culture=neutral, PublicKeyToken=null" name="OnStartTest" />
    </UnitTest>
  </TestDefinitions>
  <TestLists>
    <TestList name="Results Not in a List" id="8c84fa94-04c1-424b-9868-57a2d4851a1d" />
    <TestList name="All Loaded Results" id="19431567-8539-422a-85d7-44ee4e166bda" />
  </TestLists>
  <TestEntries>
    <TestEntry testId="48fcceca-dd9a-fd15-875a-96af18ac694f" executionId="e89042a5-a24e-48a1-9dfd-c14803d8b0bd" testListId="8c84fa94-04c1-424b-9868-57a2d4851a1d" />
  </TestEntries>
  <Results>
    <UnitTestResult executionId="e89042a5-a24e-48a1-9dfd-c14803d8b0bd" testId="48fcceca-dd9a-fd15-875a-96af18ac694f" testName="OnStartTest" computerName="INNONL-PC8" duration="00:00:53.5123507" startTime="2013-12-20T11:18:14.9908987+11:00" endTime="2013-12-20T11:19:08.5032494+11:00" testType="13cdc9d9-ddb5-4fa4-a97d-d965ccfc6d4b" outcome="Aborted" testListId="8c84fa94-04c1-424b-9868-57a2d4851a1d" relativeResultsDirectory="e89042a5-a24e-48a1-9dfd-c14803d8b0bd">
    </UnitTestResult>
  </Results>
</TestRun>